<svg width="18" height="15" viewBox="0 0 18 15" fill="none" xmlns="http://www.w3.org/2000/svg">
<path fill-rule="evenodd" clip-rule="evenodd" d="M7.89145 0.281628C8.26695 0.657132 8.26695 1.26594 7.89145 1.64145L2.32136 7.21154L7.89145 12.7816C8.26695 13.1571 8.26695 13.7659 7.89145 14.1414C7.51594 14.517 6.90713 14.517 6.53163 14.1414L0.281628 7.89145C-0.093876 7.51594 -0.093876 6.90713 0.281628 6.53163L6.53163 0.281628C6.90713 -0.093876 7.51594 -0.093876 7.89145 0.281628Z" fill="black" fill-opacity="0.54"/>
<path d="M1.61523 7.32422H16.6152" stroke="#757575" stroke-width="2" stroke-linecap="round"/>
</svg>
