<svg width="12" height="10" viewBox="0 0 12 10" fill="none" xmlns="http://www.w3.org/2000/svg">
<path fill-rule="evenodd" clip-rule="evenodd" d="M1.92687 2.14097L0.52741 0.741507L1.2637 0L10.5221 9.26362L9.78581 9.9999L7.99992 8.21402C7.30019 8.49078 6.5378 8.64221 5.74407 8.64221C3.13313 8.64221 0.903385 7.01821 0 4.7258C0.402085 3.69709 1.07571 2.80937 1.92687 2.14097ZM5.74425 1.85379C7.72335 1.85379 9.48834 2.96605 10.35 4.72583C10.0419 5.3629 9.60845 5.9112 9.09148 6.35505L9.82776 7.09134C10.5536 6.44905 11.128 5.64488 11.4883 4.72583C10.5849 2.43342 8.35519 0.809417 5.74425 0.809417C5.08107 0.809417 4.444 0.913855 3.84349 1.10706L4.7051 1.96867C5.04452 1.90079 5.38916 1.85379 5.74425 1.85379ZM5.18516 2.44909L6.26609 3.53002C6.56374 3.66056 6.80395 3.90077 6.93449 4.19842L8.01542 5.27935C8.0572 5.1018 8.08853 4.91382 8.08853 4.72061C8.09375 3.42558 7.03893 2.37598 5.74391 2.37598C5.5507 2.37598 5.36793 2.40209 5.18516 2.44909ZM4.44382 4.65788L5.80673 6.02079C5.78584 6.02601 5.76496 6.03123 5.74407 6.03123C5.02345 6.03123 4.4386 5.44638 4.4386 4.72576C4.4386 4.71271 4.4399 4.70226 4.44121 4.69182C4.44252 4.68138 4.44382 4.67093 4.44382 4.65788ZM3.58205 3.79632L2.66822 2.88249C2.03637 3.3629 1.50374 3.97908 1.13821 4.72581C1.99982 6.48559 3.76481 7.59785 5.74391 7.59785C6.23998 7.59785 6.7204 7.52474 7.17992 7.39942L6.66818 6.88767C6.3862 7.00777 6.07288 7.07566 5.74391 7.07566C4.44888 7.07566 3.39406 6.02084 3.39406 4.72581C3.39406 4.39683 3.46194 4.08352 3.58205 3.79632Z" fill="#606060"/>
</svg>
