<svg width="20" height="21" viewBox="0 0 20 21" fill="none" xmlns="http://www.w3.org/2000/svg">
<path d="M19.9997 10.2237C19.9997 9.56536 19.9401 8.94036 19.8379 8.33203H10.2168V12.0904H15.7255C15.4786 13.3237 14.7549 14.3654 13.6821 15.0737V17.5737H16.9686C18.8928 15.832 19.9997 13.2654 19.9997 10.2237Z" fill="#4285F4"/>
<path d="M10.2164 20.0018C12.9751 20.0018 15.2824 19.1018 16.9682 17.5768L13.6817 15.0768C12.7622 15.6768 11.5957 16.0435 10.2164 16.0435C7.55147 16.0435 5.29519 14.2852 4.48633 11.9102H1.09766V14.4852C2.77497 17.7518 6.22324 20.0018 10.2164 20.0018Z" fill="#34A853"/>
<path d="M4.48702 11.9073C4.27416 11.3073 4.16347 10.6657 4.16347 9.999C4.16347 9.33232 4.28267 8.69065 4.48702 8.09065V5.51562H1.09834C0.400169 6.86564 0 8.38231 0 9.999C0 11.6157 0.400169 13.1324 1.09834 14.4824L4.48702 11.9073Z" fill="#FBBC05"/>
<path d="M10.2164 3.95837C11.7235 3.95837 13.0687 4.46671 14.133 5.45839L17.0449 2.60836C15.2824 0.991677 12.9751 0 10.2164 0C6.22324 0 2.77497 2.25002 1.09766 5.51672L4.48633 8.09174C5.29519 5.71672 7.55147 3.95837 10.2164 3.95837Z" fill="#EA4335"/>
</svg>
